%YAML 1.1
%TAG !u! tag:unity3d.com,2011:
--- !u!74 &7400000
AnimationClip:
  m_ObjectHideFlags: 0
  m_PrefabParentObject: {fileID: 0}
  m_PrefabInternal: {fileID: 0}
  m_Name: attack
  serializedVersion: 6
  m_Legacy: 0
  m_Compressed: 0
  m_UseHighQualityCurve: 1
  m_RotationCurves: []
  m_CompressedRotationCurves: []
  m_EulerCurves: []
  m_PositionCurves: []
  m_ScaleCurves: []
  m_FloatCurves: []
  m_PPtrCurves:
  - curve:
    - time: 0
      value: {fileID: 21300000, guid: 7e08149ce6b237745900674661c018d9, type: 3}
    - time: 0.08
      value: {fileID: 21300000, guid: 02559937a14fd9e4f86836dea717a922, type: 3}
    - time: 0.16
      value: {fileID: 21300000, guid: 5720c64ad96c5614cb1ec6a7d8e9a4a9, type: 3}
    - time: 0.24
      value: {fileID: 21300000, guid: 82f7ab9de844ade46a5aea22a36ce1de, type: 3}
    - time: 0.32
      value: {fileID: 21300000, guid: 2d5cddf8c927a714a90c48d70890cb91, type: 3}
    - time: 0.4
      value: {fileID: 21300000, guid: 5713f10135dbfd94c9513e360a4c09b9, type: 3}
    attribute: m_Sprite
    path: 
    classID: 212
    script: {fileID: 0}
  m_SampleRate: 25
  m_WrapMode: 0
  m_Bounds:
    m_Center: {x: 0, y: 0, z: 0}
    m_Extent: {x: 0, y: 0, z: 0}
  m_ClipBindingConstant:
    genericBindings:
    - path: 0
      attribute: 0
      script: {fileID: 0}
      classID: 212
      customType: 23
      isPPtrCurve: 1
    pptrCurveMapping:
    - {fileID: 21300000, guid: 7e08149ce6b237745900674661c018d9, type: 3}
    - {fileID: 21300000, guid: 02559937a14fd9e4f86836dea717a922, type: 3}
    - {fileID: 21300000, guid: 5720c64ad96c5614cb1ec6a7d8e9a4a9, type: 3}
    - {fileID: 21300000, guid: 82f7ab9de844ade46a5aea22a36ce1de, type: 3}
    - {fileID: 21300000, guid: 2d5cddf8c927a714a90c48d70890cb91, type: 3}
    - {fileID: 21300000, guid: 5713f10135dbfd94c9513e360a4c09b9, type: 3}
  m_AnimationClipSettings:
    serializedVersion: 2
    m_AdditiveReferencePoseClip: {fileID: 0}
    m_AdditiveReferencePoseTime: 0
    m_StartTime: 0
    m_StopTime: 0.44
    m_OrientationOffsetY: 0
    m_Level: 0
    m_CycleOffset: 0
    m_HasAdditiveReferencePose: 0
    m_LoopTime: 0
    m_LoopBlend: 0
    m_LoopBlendOrientation: 0
    m_LoopBlendPositionY: 0
    m_LoopBlendPositionXZ: 0
    m_KeepOriginalOrientation: 0
    m_KeepOriginalPositionY: 1
    m_KeepOriginalPositionXZ: 0
    m_HeightFromFeet: 0
    m_Mirror: 0
  m_EditorCurves: []
  m_EulerEditorCurves: []
  m_HasGenericRootTransform: 0
  m_HasMotionFloatCurves: 0
  m_GenerateMotionCurves: 0
  m_Events: []
