%YAML 1.1
%TAG !u! tag:unity3d.com,2011:
--- !u!74 &7400000
AnimationClip:
  m_ObjectHideFlags: 0
  m_PrefabParentObject: {fileID: 0}
  m_PrefabInternal: {fileID: 0}
  m_Name: die
  serializedVersion: 6
  m_Legacy: 0
  m_Compressed: 0
  m_UseHighQualityCurve: 1
  m_RotationCurves: []
  m_CompressedRotationCurves: []
  m_EulerCurves: []
  m_PositionCurves: []
  m_ScaleCurves: []
  m_FloatCurves: []
  m_PPtrCurves:
  - curve:
    - time: 0
      value: {fileID: 21300000, guid: 30655e6aed11f944eb7fd78cac83bf81, type: 3}
    - time: 0.08
      value: {fileID: 21300000, guid: 8f219f8f60bb38e4d977e5d51c1a82e1, type: 3}
    - time: 0.16
      value: {fileID: 21300000, guid: c53d7c9395bf8804ea7a52b380a282bd, type: 3}
    - time: 0.24
      value: {fileID: 21300000, guid: 42c52fda66fb49f419df1a578b64aaa3, type: 3}
    - time: 0.32
      value: {fileID: 21300000, guid: 71182dd86ccb6f243916a35f0d63b934, type: 3}
    - time: 0.4
      value: {fileID: 21300000, guid: 3ae97524034f78944ba36502ad26da99, type: 3}
    - time: 0.48
      value: {fileID: 21300000, guid: 8b47f0556e3771442a4da22ff364bc4f, type: 3}
    attribute: m_Sprite
    path: 
    classID: 212
    script: {fileID: 0}
  m_SampleRate: 25
  m_WrapMode: 0
  m_Bounds:
    m_Center: {x: 0, y: 0, z: 0}
    m_Extent: {x: 0, y: 0, z: 0}
  m_ClipBindingConstant:
    genericBindings:
    - path: 0
      attribute: 0
      script: {fileID: 0}
      classID: 212
      customType: 23
      isPPtrCurve: 1
    pptrCurveMapping:
    - {fileID: 21300000, guid: 30655e6aed11f944eb7fd78cac83bf81, type: 3}
    - {fileID: 21300000, guid: 8f219f8f60bb38e4d977e5d51c1a82e1, type: 3}
    - {fileID: 21300000, guid: c53d7c9395bf8804ea7a52b380a282bd, type: 3}
    - {fileID: 21300000, guid: 42c52fda66fb49f419df1a578b64aaa3, type: 3}
    - {fileID: 21300000, guid: 71182dd86ccb6f243916a35f0d63b934, type: 3}
    - {fileID: 21300000, guid: 3ae97524034f78944ba36502ad26da99, type: 3}
    - {fileID: 21300000, guid: 8b47f0556e3771442a4da22ff364bc4f, type: 3}
  m_AnimationClipSettings:
    serializedVersion: 2
    m_AdditiveReferencePoseClip: {fileID: 0}
    m_AdditiveReferencePoseTime: 0
    m_StartTime: 0
    m_StopTime: 0.52
    m_OrientationOffsetY: 0
    m_Level: 0
    m_CycleOffset: 0
    m_HasAdditiveReferencePose: 0
    m_LoopTime: 0
    m_LoopBlend: 0
    m_LoopBlendOrientation: 0
    m_LoopBlendPositionY: 0
    m_LoopBlendPositionXZ: 0
    m_KeepOriginalOrientation: 0
    m_KeepOriginalPositionY: 1
    m_KeepOriginalPositionXZ: 0
    m_HeightFromFeet: 0
    m_Mirror: 0
  m_EditorCurves: []
  m_EulerEditorCurves: []
  m_HasGenericRootTransform: 0
  m_HasMotionFloatCurves: 0
  m_GenerateMotionCurves: 0
  m_Events: []
