%YAML 1.1
%TAG !u! tag:unity3d.com,2011:
--- !u!74 &7400000
AnimationClip:
  m_ObjectHideFlags: 0
  m_PrefabParentObject: {fileID: 0}
  m_PrefabInternal: {fileID: 0}
  m_Name: Iddle
  serializedVersion: 6
  m_Legacy: 0
  m_Compressed: 0
  m_UseHighQualityCurve: 1
  m_RotationCurves: []
  m_CompressedRotationCurves: []
  m_EulerCurves: []
  m_PositionCurves: []
  m_ScaleCurves: []
  m_FloatCurves: []
  m_PPtrCurves:
  - curve:
    - time: 0
      value: {fileID: 21300000, guid: e68872fd8707ee14da9808a12aa80ffa, type: 3}
    - time: 0.08
      value: {fileID: 21300000, guid: 89562b26e22bfa74fad4c6b3062bff56, type: 3}
    - time: 0.16
      value: {fileID: 21300000, guid: c7659989693df9841ac97b09ce92bb68, type: 3}
    - time: 0.24
      value: {fileID: 21300000, guid: 3f2ac8ec1a0b5a64f8cca9c7932c1c8e, type: 3}
    - time: 0.32
      value: {fileID: 21300000, guid: 4eebd20571b78504a92a05cee3286301, type: 3}
    - time: 0.4
      value: {fileID: 21300000, guid: e639aceb34d548945a1e2f16efad75fc, type: 3}
    - time: 0.48
      value: {fileID: 21300000, guid: 3452833fdf9f8fb48aaebf624d851a20, type: 3}
    attribute: m_Sprite
    path: 
    classID: 212
    script: {fileID: 0}
  m_SampleRate: 25
  m_WrapMode: 0
  m_Bounds:
    m_Center: {x: 0, y: 0, z: 0}
    m_Extent: {x: 0, y: 0, z: 0}
  m_ClipBindingConstant:
    genericBindings:
    - path: 0
      attribute: 0
      script: {fileID: 0}
      classID: 212
      customType: 23
      isPPtrCurve: 1
    pptrCurveMapping:
    - {fileID: 21300000, guid: e68872fd8707ee14da9808a12aa80ffa, type: 3}
    - {fileID: 21300000, guid: 89562b26e22bfa74fad4c6b3062bff56, type: 3}
    - {fileID: 21300000, guid: c7659989693df9841ac97b09ce92bb68, type: 3}
    - {fileID: 21300000, guid: 3f2ac8ec1a0b5a64f8cca9c7932c1c8e, type: 3}
    - {fileID: 21300000, guid: 4eebd20571b78504a92a05cee3286301, type: 3}
    - {fileID: 21300000, guid: e639aceb34d548945a1e2f16efad75fc, type: 3}
    - {fileID: 21300000, guid: 3452833fdf9f8fb48aaebf624d851a20, type: 3}
  m_AnimationClipSettings:
    serializedVersion: 2
    m_AdditiveReferencePoseClip: {fileID: 0}
    m_AdditiveReferencePoseTime: 0
    m_StartTime: 0
    m_StopTime: 0.52
    m_OrientationOffsetY: 0
    m_Level: 0
    m_CycleOffset: 0
    m_HasAdditiveReferencePose: 0
    m_LoopTime: 0
    m_LoopBlend: 0
    m_LoopBlendOrientation: 0
    m_LoopBlendPositionY: 0
    m_LoopBlendPositionXZ: 0
    m_KeepOriginalOrientation: 0
    m_KeepOriginalPositionY: 1
    m_KeepOriginalPositionXZ: 0
    m_HeightFromFeet: 0
    m_Mirror: 0
  m_EditorCurves: []
  m_EulerEditorCurves: []
  m_HasGenericRootTransform: 0
  m_HasMotionFloatCurves: 0
  m_GenerateMotionCurves: 0
  m_Events: []
