%YAML 1.1
%TAG !u! tag:unity3d.com,2011:
--- !u!74 &7400000
AnimationClip:
  m_ObjectHideFlags: 0
  m_PrefabParentObject: {fileID: 0}
  m_PrefabInternal: {fileID: 0}
  m_Name: attack
  serializedVersion: 6
  m_Legacy: 0
  m_Compressed: 0
  m_UseHighQualityCurve: 1
  m_RotationCurves: []
  m_CompressedRotationCurves: []
  m_EulerCurves: []
  m_PositionCurves: []
  m_ScaleCurves: []
  m_FloatCurves: []
  m_PPtrCurves:
  - curve:
    - time: 0
      value: {fileID: 21300000, guid: 83b414697aef60f479bcb85b5ff88258, type: 3}
    - time: 0.04
      value: {fileID: 21300000, guid: 501062ea3b586b3458515d086d3e92de, type: 3}
    - time: 0.08
      value: {fileID: 21300000, guid: ef8550e89b3bf9c49a754d4074391f4c, type: 3}
    - time: 0.12
      value: {fileID: 21300000, guid: 777336d9941c14346817489e3cce60cd, type: 3}
    - time: 0.16
      value: {fileID: 21300000, guid: 7a04afe8902883c4ba306078216e1bb2, type: 3}
    - time: 0.2
      value: {fileID: 21300000, guid: 21314d36e170cd84faf1f2ea4b4d9dc3, type: 3}
    - time: 0.24
      value: {fileID: 21300000, guid: 655c71a6e35fb57469876902e5c1d5d0, type: 3}
    attribute: m_Sprite
    path: 
    classID: 212
    script: {fileID: 0}
  m_SampleRate: 25
  m_WrapMode: 0
  m_Bounds:
    m_Center: {x: 0, y: 0, z: 0}
    m_Extent: {x: 0, y: 0, z: 0}
  m_ClipBindingConstant:
    genericBindings:
    - path: 0
      attribute: 0
      script: {fileID: 0}
      classID: 212
      customType: 23
      isPPtrCurve: 1
    pptrCurveMapping:
    - {fileID: 21300000, guid: 83b414697aef60f479bcb85b5ff88258, type: 3}
    - {fileID: 21300000, guid: 501062ea3b586b3458515d086d3e92de, type: 3}
    - {fileID: 21300000, guid: ef8550e89b3bf9c49a754d4074391f4c, type: 3}
    - {fileID: 21300000, guid: 777336d9941c14346817489e3cce60cd, type: 3}
    - {fileID: 21300000, guid: 7a04afe8902883c4ba306078216e1bb2, type: 3}
    - {fileID: 21300000, guid: 21314d36e170cd84faf1f2ea4b4d9dc3, type: 3}
    - {fileID: 21300000, guid: 655c71a6e35fb57469876902e5c1d5d0, type: 3}
  m_AnimationClipSettings:
    serializedVersion: 2
    m_AdditiveReferencePoseClip: {fileID: 0}
    m_AdditiveReferencePoseTime: 0
    m_StartTime: 0
    m_StopTime: 0.28
    m_OrientationOffsetY: 0
    m_Level: 0
    m_CycleOffset: 0
    m_HasAdditiveReferencePose: 0
    m_LoopTime: 1
    m_LoopBlend: 0
    m_LoopBlendOrientation: 0
    m_LoopBlendPositionY: 0
    m_LoopBlendPositionXZ: 0
    m_KeepOriginalOrientation: 0
    m_KeepOriginalPositionY: 1
    m_KeepOriginalPositionXZ: 0
    m_HeightFromFeet: 0
    m_Mirror: 0
  m_EditorCurves: []
  m_EulerEditorCurves: []
  m_HasGenericRootTransform: 0
  m_HasMotionFloatCurves: 0
  m_GenerateMotionCurves: 0
  m_Events: []
